<svg width="9" height="13" viewBox="0 0 9 13" fill="none" xmlns="http://www.w3.org/2000/svg">
<path d="M4.25803 6.5L0.0145264 2.258L2.13553 0.135498L8.50003 6.5L2.13553 12.8645L0.0145264 10.742L4.25803 6.5Z" fill="#03053D"/>
</svg>
