<svg width="23" height="23" viewBox="0 0 23 23" fill="none" xmlns="http://www.w3.org/2000/svg">
<path d="M23 11.5698C23 5.21857 17.8513 0.069849 11.5 0.069849C5.14872 0.069849 0 5.21857 0 11.5698C0 17.3098 4.20538 22.0674 9.70312 22.9301V14.8941H6.7832V11.5698H9.70312V9.03626C9.70312 6.15407 11.42 4.56204 14.0468 4.56204C15.305 4.56204 16.6211 4.78665 16.6211 4.78665V7.61672H15.171C13.7424 7.61672 13.2969 8.50319 13.2969 9.41263V11.5698H16.4863L15.9765 14.8941H13.2969V22.9301C18.7946 22.0674 23 17.3098 23 11.5698Z" fill="white"/>
</svg>
